{"failedCount":1,"prefixedPath":"src\/test\/resources\/Features\/users.feature","packageQualifiedName":"src.test.resources.Features.users","loopIndex":-1,"relativePath":"src\/test\/resources\/Features\/users.feature","scenarioResults":[{"sectionIndex":0,"stepResults":[{"result":{"nanos":153697600,"millis":153.6976,"status":"passed"},"step":{"background":true,"line":4,"prefix":"*","index":0,"text":"url 'https:\/\/reqres.in\/api'"}},{"result":{"nanos":1048400,"millis":1.0484,"status":"passed"},"step":{"background":true,"line":5,"prefix":"*","index":1,"text":"header Accept = 'application\/json'"}},{"result":{"nanos":170265500,"millis":170.2655,"status":"passed"},"step":{"background":true,"line":6,"prefix":"*","index":2,"text":"def expectedOutput = read('..\/\/Features\/\/result.json')"}},{"result":{"nanos":646600,"millis":0.6466,"status":"passed"},"step":{"line":8,"prefix":"Given","index":0,"text":"path '\/users?page=2'"}},{"result":{"nanos":3339802400,"millis":3339.8024,"status":"passed"},"step":{"line":9,"prefix":"When","index":1,"text":"method Get"},"stepLog":"10:20:02.784 request:\n1 > GET https:\/\/reqres.in\/api\/users%3Fpage=2\n1 > Accept: application\/json\n1 > Host: reqres.in\n1 > Connection: Keep-Alive\n1 > User-Agent: Apache-HttpClient\/4.5.13 (Java\/1.8.0_171)\n1 > Accept-Encoding: gzip,deflate\n\n\n10:20:03.159 response time in milliseconds: 313\n1 < 200\n1 < Date: Wed, 14 Jul 2021 15:20:03 GMT\n1 < Content-Type: application\/json; charset=utf-8\n1 < Transfer-Encoding: chunked\n1 < Connection: keep-alive\n1 < X-Powered-By: Express\n1 < Access-Control-Allow-Origin: *\n1 < Etag: W\/\"2c1-N6Rqerxquq2kgQhL51EiSg4x0R8\"\n1 < Via: 1.1 vegur\n1 < Cache-Control: max-age=14400\n1 < CF-Cache-Status: HIT\n1 < Age: 2858\n1 < Expect-CT: max-age=604800, report-uri=\"https:\/\/report-uri.cloudflare.com\/cdn-cgi\/beacon\/expect-ct\"\n1 < Report-To: {\"endpoints\":[{\"url\":\"https:\\\/\\\/a.nel.cloudflare.com\\\/report\\\/v3?s=s8Ag10pOfH98BhnnmWcp9b0d5X9GzxWgr6WQ%2FuvySl%2B6DkVMheGh7WplDuSukj3wKxlswCe6s98LqkWYp9AAVYsQBgho%2BSyIeejUrHfdl5ec0MrE%2BJuS58RvkXY%3D\"}],\"group\":\"cf-nel\",\"max_age\":604800}\n1 < NEL: {\"report_to\":\"cf-nel\",\"max_age\":604800}\n1 < Vary: Accept-Encoding\n1 < Server: cloudflare\n1 < CF-RAY: 66ebbb9afd79287b-DFW\n1 < alt-svc: h3-27=\":443\"; ma=86400, h3-28=\":443\"; ma=86400, h3-29=\":443\"; ma=86400, h3=\":443\"; ma=86400\n{\"per_page\":6,\"total\":12,\"data\":[{\"color\":\"#98B2D1\",\"year\":2000,\"name\":\"cerulean\",\"id\":1,\"pantone_value\":\"15-4020\"},{\"color\":\"#C74375\",\"year\":2001,\"name\":\"fuchsia rose\",\"id\":2,\"pantone_value\":\"17-2031\"},{\"color\":\"#BF1932\",\"year\":2002,\"name\":\"true red\",\"id\":3,\"pantone_value\":\"19-1664\"},{\"color\":\"#7BC4C4\",\"year\":2003,\"name\":\"aqua sky\",\"id\":4,\"pantone_value\":\"14-4811\"},{\"color\":\"#E2583E\",\"year\":2004,\"name\":\"tigerlily\",\"id\":5,\"pantone_value\":\"17-1456\"},{\"color\":\"#53B0AE\",\"year\":2005,\"name\":\"blue turquoise\",\"id\":6,\"pantone_value\":\"15-5217\"}],\"page\":1,\"total_pages\":2,\"support\":{\"text\":\"To keep ReqRes free, contributions towards server costs are appreciated!\",\"url\":\"https:\\\/\\\/reqres.in\\\/#support-heading\"}}\n"},{"result":{"nanos":19600,"millis":0.0196,"status":"passed"},"step":{"line":10,"prefix":"Then","index":2,"text":"status 200"}},{"result":{"nanos":32691200,"millis":32.6912,"status":"passed"},"step":{"line":11,"prefix":"And","index":3,"text":"print response"},"stepLog":"10:20:03.195 [print] {\n  \"per_page\": 6,\n  \"total\": 12,\n  \"data\": [\n    {\n      \"color\": \"#98B2D1\",\n      \"year\": 2000,\n      \"name\": \"cerulean\",\n      \"id\": 1,\n      \"pantone_value\": \"15-4020\"\n    },\n    {\n      \"color\": \"#C74375\",\n      \"year\": 2001,\n      \"name\": \"fuchsia rose\",\n      \"id\": 2,\n      \"pantone_value\": \"17-2031\"\n    },\n    {\n      \"color\": \"#BF1932\",\n      \"year\": 2002,\n      \"name\": \"true red\",\n      \"id\": 3,\n      \"pantone_value\": \"19-1664\"\n    },\n    {\n      \"color\": \"#7BC4C4\",\n      \"year\": 2003,\n      \"name\": \"aqua sky\",\n      \"id\": 4,\n      \"pantone_value\": \"14-4811\"\n    },\n    {\n      \"color\": \"#E2583E\",\n      \"year\": 2004,\n      \"name\": \"tigerlily\",\n      \"id\": 5,\n      \"pantone_value\": \"17-1456\"\n    },\n    {\n      \"color\": \"#53B0AE\",\n      \"year\": 2005,\n      \"name\": \"blue turquoise\",\n      \"id\": 6,\n      \"pantone_value\": \"15-5217\"\n    }\n  ],\n  \"page\": 1,\n  \"total_pages\": 2,\n  \"support\": {\n    \"text\": \"To keep ReqRes free, contributions towards server costs are appreciated!\",\n    \"url\": \"https:\/\/reqres.in\/#support-heading\"\n  }\n}\n \n"},{"result":{"nanos":15911200,"errorMessage":"match failed: EQUALS\n  $ | data types don't match (MAP:NULL)\n  {\"per_page\":6,\"total\":12,\"data\":[{\"color\":\"#98B2D1\",\"year\":2000,\"name\":\"cerulean\",\"id\":1,\"pantone_value\":\"15-4020\"},{\"color\":\"#C74375\",\"year\":2001,\"name\":\"fuchsia rose\",\"id\":2,\"pantone_value\":\"17-2031\"},{\"color\":\"#BF1932\",\"year\":2002,\"name\":\"true red\",\"id\":3,\"pantone_value\":\"19-1664\"},{\"color\":\"#7BC4C4\",\"year\":2003,\"name\":\"aqua sky\",\"id\":4,\"pantone_value\":\"14-4811\"},{\"color\":\"#E2583E\",\"year\":2004,\"name\":\"tigerlily\",\"id\":5,\"pantone_value\":\"17-1456\"},{\"color\":\"#53B0AE\",\"year\":2005,\"name\":\"blue turquoise\",\"id\":6,\"pantone_value\":\"15-5217\"}],\"page\":1,\"total_pages\":2,\"support\":{\"text\":\"To keep ReqRes free, contributions towards server costs are appreciated!\",\"url\":\"https:\/\/reqres.in\/#support-heading\"}}\n  null\n\nsrc\/test\/resources\/Features\/users.feature:12","millis":15.9112,"status":"failed"},"step":{"line":12,"prefix":"And","index":4,"text":"match response == expectedOutput"},"stepLog":"10:20:03.212 src\/test\/resources\/Features\/users.feature:12\nAnd match response == expectedOutput\nmatch failed: EQUALS\n  $ | data types don't match (MAP:NULL)\n  {\"per_page\":6,\"total\":12,\"data\":[{\"color\":\"#98B2D1\",\"year\":2000,\"name\":\"cerulean\",\"id\":1,\"pantone_value\":\"15-4020\"},{\"color\":\"#C74375\",\"year\":2001,\"name\":\"fuchsia rose\",\"id\":2,\"pantone_value\":\"17-2031\"},{\"color\":\"#BF1932\",\"year\":2002,\"name\":\"true red\",\"id\":3,\"pantone_value\":\"19-1664\"},{\"color\":\"#7BC4C4\",\"year\":2003,\"name\":\"aqua sky\",\"id\":4,\"pantone_value\":\"14-4811\"},{\"color\":\"#E2583E\",\"year\":2004,\"name\":\"tigerlily\",\"id\":5,\"pantone_value\":\"17-1456\"},{\"color\":\"#53B0AE\",\"year\":2005,\"name\":\"blue turquoise\",\"id\":6,\"pantone_value\":\"15-5217\"}],\"page\":1,\"total_pages\":2,\"support\":{\"text\":\"To keep ReqRes free, contributions towards server costs are appreciated!\",\"url\":\"https:\/\/reqres.in\/#support-heading\"}}\n  null\n\nsrc\/test\/resources\/Features\/users.feature:12\n"}],"line":7,"description":"","durationMillis":3714.0825,"failed":true,"error":"match failed: EQUALS\n  $ | data types don't match (MAP:NULL)\n  {\"per_page\":6,\"total\":12,\"data\":[{\"color\":\"#98B2D1\",\"year\":2000,\"name\":\"cerulean\",\"id\":1,\"pantone_value\":\"15-4020\"},{\"color\":\"#C74375\",\"year\":2001,\"name\":\"fuchsia rose\",\"id\":2,\"pantone_value\":\"17-2031\"},{\"color\":\"#BF1932\",\"year\":2002,\"name\":\"true red\",\"id\":3,\"pantone_value\":\"19-1664\"},{\"color\":\"#7BC4C4\",\"year\":2003,\"name\":\"aqua sky\",\"id\":4,\"pantone_value\":\"14-4811\"},{\"color\":\"#E2583E\",\"year\":2004,\"name\":\"tigerlily\",\"id\":5,\"pantone_value\":\"17-1456\"},{\"color\":\"#53B0AE\",\"year\":2005,\"name\":\"blue turquoise\",\"id\":6,\"pantone_value\":\"15-5217\"}],\"page\":1,\"total_pages\":2,\"support\":{\"text\":\"To keep ReqRes free, contributions towards server costs are appreciated!\",\"url\":\"https:\/\/reqres.in\/#support-heading\"}}\n  null\n\nsrc\/test\/resources\/Features\/users.feature:12","executorName":"main","name":"Test Get Api call","startTime":1626275999473,"refId":"[1:7]","endTime":1626276003212,"exampleIndex":-1}],"callDepth":0,"name":"Sample Get API call","description":"","resultDate":"2021-07-14 10:20:03 AM","durationMillis":3714.0825,"passedCount":0}